{
  "project_info": {
    "project_number": "94853889413",
    "firebase_url": "https://smartprop-dbf9c.firebaseio.com",
    "project_id": "smartprop-dbf9c",
    "storage_bucket": "smartprop-dbf9c.appspot.com"
  },
  "client": [
    {
      "client_info": {
        "mobilesdk_app_id": "1:94853889413:android:5846fbf8d399ca6f9758ec",
        "android_client_info": {
          "package_name": "com.apps.srashtasoft.allinone"
        }
      },
      "oauth_client": [
        {
          "client_id": "94853889413-9jmi9is30mdfidi02tl6out5vojkl6uk.apps.googleusercontent.com",
          "client_type": 3
        }
      ],
      "api_key": [
        {
          "current_key": "AIzaSyC0dzqaMwUiPl9OtF86kIILO9rAm5S5lAw"
        }
      ],
      "services": {
        "appinvite_service": {
          "other_platform_oauth_client": [
            {
              "client_id": "94853889413-9jmi9is30mdfidi02tl6out5vojkl6uk.apps.googleusercontent.com",
              "client_type": 3
            }
          ]
        }
      }
    },
    {
      "client_info": {
        "mobilesdk_app_id": "1:94853889413:android:af617c49a5a99a0e9758ec",
        "android_client_info": {
          "package_name": "com.apps.srashtasoft.autoclickify"
        }
      },
      "oauth_client": [
        {
          "client_id": "94853889413-9jmi9is30mdfidi02tl6out5vojkl6uk.apps.googleusercontent.com",
          "client_type": 3
        }
      ],
      "api_key": [
        {
          "current_key": "AIzaSyC0dzqaMwUiPl9OtF86kIILO9rAm5S5lAw"
        }
      ],
      "services": {
        "appinvite_service": {
          "other_platform_oauth_client": [
            {
              "client_id": "94853889413-9jmi9is30mdfidi02tl6out5vojkl6uk.apps.googleusercontent.com",
              "client_type": 3
            }
          ]
        }
      }
    },
    {
      "client_info": {
        "mobilesdk_app_id": "1:94853889413:android:866ef267d4d82905",
        "android_client_info": {
          "package_name": "smartprop.slidingmenu"
        }
      },
      "oauth_client": [
        {
          "client_id": "94853889413-ali7q66qbmmjn3k5k5j1q1imhf7cj4je.apps.googleusercontent.com",
          "client_type": 1,
          "android_info": {
            "package_name": "smartprop.slidingmenu",
            "certificate_hash": "4792a222f59d5bc2e85ac1a00ccd458db052e962"
          }
        },
        {
          "client_id": "94853889413-9jmi9is30mdfidi02tl6out5vojkl6uk.apps.googleusercontent.com",
          "client_type": 3
        }
      ],
      "api_key": [
        {
          "current_key": "AIzaSyC0dzqaMwUiPl9OtF86kIILO9rAm5S5lAw"
        }
      ],
      "services": {
        "appinvite_service": {
          "other_platform_oauth_client": [
            {
              "client_id": "94853889413-9jmi9is30mdfidi02tl6out5vojkl6uk.apps.googleusercontent.com",
              "client_type": 3
            }
          ]
        }
      }
    }
  ],
  "configuration_version": "1"
}